<svg width="30" height="40" viewBox="0 0 30 40" fill="none" xmlns="http://www.w3.org/2000/svg">
<path d="M9.63366 16.6975C9.99126 16.5775 10.2757 16.4113 10.4869 16.1975C10.7653 15.915 10.9801 15.5463 11.1301 15.0913C11.2537 14.7175 11.3149 14.2738 11.3149 13.7588C11.3149 13.1713 11.2489 12.6788 11.1181 12.2775C10.9873 11.8763 10.7941 11.5388 10.5433 11.2625C10.2913 10.985 9.98886 10.7938 9.63606 10.685C9.37326 10.6063 8.99286 10.565 8.49246 10.565H6.27246V16.8288H8.55726C9.00726 16.8288 9.36606 16.785 9.63366 16.6975ZM7.48806 15.775V11.625H8.03406C8.52846 11.625 8.86086 11.645 9.03006 11.685C9.25686 11.7363 9.44526 11.8338 9.59286 11.98C9.74046 12.1238 9.85566 12.3263 9.93726 12.585C10.0189 12.845 10.0609 13.2163 10.0609 13.7013C10.0609 14.1863 10.0201 14.5675 9.93726 14.8488C9.85446 15.13 9.74886 15.3313 9.61806 15.4525C9.48966 15.575 9.32526 15.6613 9.12846 15.7125C8.97846 15.7525 8.73366 15.7738 8.39526 15.7738L7.48806 15.775Z" fill="#D23B40"/>
<path d="M15.024 16.9363C15.906 16.9363 16.6116 16.65 17.1408 16.0788C17.6676 15.5075 17.9316 14.7163 17.9316 13.7063C17.9316 12.6863 17.6652 11.89 17.1348 11.3175C16.6032 10.745 15.894 10.4588 15.0084 10.4588C14.5188 10.4588 14.0856 10.54 13.7124 10.705C13.4304 10.8288 13.1712 11.0163 12.936 11.2688C12.6996 11.5225 12.5112 11.81 12.3756 12.1288C12.192 12.5625 12.1008 13.0963 12.1008 13.735C12.1008 14.7325 12.3648 15.515 12.8928 16.0825C13.4184 16.6525 14.1288 16.9363 15.024 16.9363ZM13.8096 12.0763C14.1156 11.7188 14.5188 11.54 15.0192 11.54C15.5196 11.54 15.9216 11.7175 16.224 12.07C16.5252 12.4225 16.6764 12.9588 16.6764 13.6763C16.6764 14.4025 16.5216 14.9475 16.2108 15.3113C15.9 15.6738 15.5028 15.8563 15.0192 15.8563C14.5356 15.8563 14.1372 15.6738 13.8216 15.3075C13.5072 14.9413 13.35 14.4038 13.35 13.695C13.35 12.9725 13.5024 12.4338 13.8096 12.0763Z" fill="#D23B40"/>
<path d="M21.4178 11.54C21.7406 11.54 22.0142 11.6337 22.241 11.8225C22.4666 12.01 22.6154 12.2662 22.6862 12.5912L23.8874 12.2925C23.7506 11.7912 23.5454 11.4062 23.2718 11.1387C22.8122 10.6862 22.2146 10.46 21.479 10.46C20.6378 10.46 19.9574 10.7475 19.4414 11.3237C18.9242 11.9012 18.6662 12.71 18.6662 13.7525C18.6662 14.7375 18.923 15.515 19.4378 16.0825C19.9514 16.6512 20.6078 16.9362 21.407 16.9362C22.0514 16.9362 22.5842 16.77 23.0042 16.4387C23.4242 16.1075 23.7242 15.5987 23.9042 14.915L22.727 14.5262C22.6262 14.9837 22.4594 15.32 22.2278 15.535C21.995 15.7475 21.7166 15.855 21.395 15.855C20.9582 15.855 20.6018 15.6862 20.3282 15.3512C20.0546 15.0162 19.9178 14.4512 19.9178 13.6587C19.9178 12.9125 20.0558 12.3737 20.3342 12.0387C20.6102 11.7075 20.9726 11.54 21.4178 11.54Z" fill="#D23B40"/>
<path d="M30 6.2025L24.0456 0H0V40H30V6.2025ZM28.8 38.75H1.2V1.25H23.5488L28.8 6.72V38.75Z" fill="#D23B40"/>
<path d="M23.9914 30.0513H6.0082V31.3013H23.9914V30.0513Z" fill="#D23B40"/>
<path d="M23.9914 25.625H6.0082V26.875H23.9914V25.625Z" fill="#D23B40"/>
</svg>
