<svg width="17" height="19" viewBox="0 0 17 19" fill="none" xmlns="http://www.w3.org/2000/svg">
<path d="M11.9497 8.73045C12.9708 7.72207 13.5227 6.34218 13.5227 4.93575C13.5227 2.12291 11.3701 0 8.5 0C5.62987 0 3.47727 2.12291 3.47727 4.93575C3.47727 6.34218 4.02922 7.72207 5.05032 8.73045C1.98701 10.0307 0 12.9497 0 16.1872V17.1425C0 18.1774 0.855519 19 1.93182 19H15.0682C16.1445 19 17 18.1774 17 17.1425V16.1872C17 12.9497 15.013 10.0307 11.9497 8.73045ZM8.5 1.59218C10.4594 1.59218 11.8669 2.9986 11.8669 4.93575C11.8669 6.87291 10.349 8.59777 8.5 8.59777C6.65097 8.59777 5.13312 6.95251 5.13312 4.93575C5.13312 2.91899 6.54058 1.59218 8.5 1.59218ZM15.3442 17.1425C15.3442 17.3017 15.2338 17.4078 15.0682 17.4078H1.93182C1.76623 17.4078 1.65584 17.3017 1.65584 17.1425V16.1872C1.65584 13.2151 3.72565 10.6145 6.73377 9.84497C7.86526 10.2961 9.10714 10.2961 10.2386 9.84497C13.2192 10.6145 15.3166 13.2151 15.3442 16.1872V17.1425Z" fill="#ED1C24"/>
</svg>
