<svg width="36" height="28" viewBox="0 0 36 28" fill="none" xmlns="http://www.w3.org/2000/svg">
<path d="M29.5 0.3C24 -0.1 12 -0.1 6.6 0.3C0.7 0.7 0 4.4 0 14C0 23.6 0.7 27.3 6.6 27.7C12 28.1 24.1 28.1 29.5 27.7C35.3 27.3 36 23.6 36 14C36 4.4 35.3 0.7 29.5 0.3ZM14 20V8L25 14L14 20Z" fill="white"/>
</svg>
