{
  "nav": [
    {
      "title": "создать тендер",
      "link": "tenders-form.html"
    },
    {
      "title": "разместить анкету"
    },
    {
      "title": "о проекте",
      "list": [
        {
          "title": "БАЗА ЗНАНИЙ",
          "link": "guide.html"
        },
        {
          "title": "СПИСОК КИНОДЕЛОВ"
        },
        {
          "title": "ПРАВИЛА БИРЖИ"
        },
        {
          "title": "КАК ПОЛЬЗОВАТЬСЯ"
        },
        {
          "title": "КОНТАКТЫ",
          "link": "contacts.html"
        }
      ]
    },
    {
      "title": "курсы"
    },
    {
      "title": "поддержка",
      "link": "support.html"
    }
  ],
  "files": [
    {
      "name": "Скачать презенацию",
      "info": "PDF, 360 MB",
      "icon": "pdf"
    },
    {
      "name": "Скачать презенацию",
      "info": "PDF, 360 MB",
      "icon": "pdf"
    },
    {
      "name": "Скачать прайс-лист",
      "info": "XLS, 360 MB",
      "icon": "xls"
    },
    {
      "name": "Скачать прайс-лист",
      "info": "DOC, 360 MB",
      "icon": "doc"
    }
  ],
  "filters": [
    {
      "name": "Все города",
      "list": [
        "Все города",
        "Москва",
        "Санкт-Петербург",
        "Новосибирск",
        "Владивосток"
      ]
    },
    {
      "name": "Специализация",
      "list": [
        "Специализация",
        "Монтаж",
        "Видео “под ключ”",
        "Cъемка",
        "Цветокоррекция"
      ]
    }
  ],
  "specialists": [
    {
      "name": "Станислав Черикчев",
      "image": "assets/temp/users/1.jpg",
      "info": [
        {
          "list": [
            "Москва"
          ]
        },
        {
          "list": [
            "Монтаж",
            "Видео “под ключ”",
            "Cъемка",
            "Цветокоррекция"
          ]
        }
      ],
      "text": "Пишу статьи для блогов и СМИ, серии писем для рассылок, делаю презентации и готовлю тексты для лендингов. Подхожу, если вам нужен яркий, не занудный слог. Не берусь за юридические, бухгалтерские и крипто темы.",
      "links": [
        "Портфолио",
        "Контакты"
      ],
      "rating": [
        {
          "value": 120,
          "list": [
            {
              "name": "Подрядчик агентства “Хохлов Сабатовский”",
              "number": 50
            },
            {
              "name": "Кинодел 2 уровня",
              "number": 10
            },
            {
              "name": "Разместил 6 работ",
              "number": 20
            },
            {
              "name": "10 конкурстных наград",
              "number": 15
            },
            {
              "name": "Курс «Работа с клиентом»",
              "number": 20
            },
            {
              "name": "Есть ссылка на портфолио",
              "number": 5,
              "nolink": true
            }
          ]
        }
      ]
    },
    {
      "name": "Константин Константинопольский",
      "image": "assets/temp/users/2.jpg",
      "info": [
        {
          "list": [
            "Москва"
          ]
        },
        {
          "list": [
            "Монтаж"
          ]
        }
      ],
      "text": "Работаю в бюро. Сорри, новые проекты не беру.",
      "links": [
        "Контакты"
      ],
      "rating": [
        {
          "value": 120,
          "list": [
            {
              "name": "Подрядчик агентства “Хохлов Сабатовский”",
              "number": 50
            },
            {
              "name": "Кинодел 2 уровня",
              "number": 10
            },
            {
              "name": "Разместил 6 работ",
              "number": 20
            },
            {
              "name": "10 конкурстных наград",
              "number": 15
            },
            {
              "name": "Курс «Работа с клиентом»",
              "number": 20
            }
          ]
        }
      ]
    },
    {
      "name": "Марина Ивановская",
      "image": "assets/temp/users/3.jpg",
      "info": [
        {
          "list": [
            "Москва"
          ]
        },
        {
          "list": [
            "Монтаж",
            "Видео “под ключ”"
          ]
        }
      ],
      "text": "Разберусь в теме, напишу статью, составлю инструкцию, сверстаю промостраницу. Люблю и умею объяснять сложные темы простым языком. Любимые темы — здоровье, наука, всевозможный ЗОЖ, книги и путешествия. Не помогу с темами финансов и недвижимости...",
      "links": [
        "Портфолио",
        "Контакты"
      ],
      "rating": [
        {
          "value": 120,
          "list": [
            {
              "name": "Подрядчик агентства “Хохлов Сабатовский”",
              "number": 50
            },
            {
              "name": "Кинодел 2 уровня",
              "number": 10
            },
            {
              "name": "Разместил 6 работ",
              "number": 20
            },
            {
              "name": "10 конкурстных наград",
              "number": 15
            },
            {
              "name": "Курс «Работа с клиентом»",
              "number": 20
            },
            {
              "name": "Есть ссылка на портфолио",
              "number": 5,
              "nolink": true
            }
          ]
        }
      ]
    },
    {
      "name": "Dagny Taggart",
      "image": "assets/temp/users/4.jpg",
      "info": [
        {
          "list": [
            "Москва"
          ]
        },
        {
          "list": [
            "Cъемка",
            "Цветокоррекция"
          ]
        }
      ],
      "text": "Пишу статьи для блогов и СМИ, серии писем для рассылок, делаю презентации и готовлю тексты для лендингов. Подхожу, если вам нужен яркий, не занудный слог. Не берусь за юридические, бухгалтерские и крипто темы.",
      "links": [
        "Портфолио",
        "Контакты"
      ],
      "rating": [
        {
          "value": 120,
          "list": [
            {
              "name": "Подрядчик агентства “Хохлов Сабатовский”",
              "number": 50
            },
            {
              "name": "Кинодел 2 уровня",
              "number": 10
            },
            {
              "name": "Разместил 6 работ",
              "number": 20
            },
            {
              "name": "10 конкурстных наград",
              "number": 15
            },
            {
              "name": "Курс «Работа с клиентом»",
              "number": 20
            },
            {
              "name": "Есть ссылка на портфолио",
              "number": 5,
              "nolink": true
            }
          ]
        }
      ]
    },
    {
      "name": "Тони Старк",
      "image": "assets/temp/users/5.jpg",
      "info": [
        {
          "list": [
            "Москва"
          ]
        },
        {
          "list": [
            "Монтаж",
          ]
        }
      ],
      "links": [
        "Контакты"
      ],
      "rating": [
        {
          "value": 120,
          "list": [
            {
              "name": "Подрядчик агентства “Хохлов Сабатовский”",
              "number": 50
            },
            {
              "name": "Кинодел 2 уровня",
              "number": 10
            },
            {
              "name": "Разместил 6 работ",
              "number": 20
            },
            {
              "name": "10 конкурстных наград",
              "number": 15
            },
            {
              "name": "Курс «Работа с клиентом»",
              "number": 20
            }
          ]
        }
      ]
    },
    {
      "name": "Марина Ивановская",
      "image": "assets/temp/users/6.jpg",
      "info": [
        {
          "list": [
            "Москва"
          ]
        },
        {
          "list": [
            "Монтаж",
            "Видео “под ключ”"
          ]
        }
      ],
      "text": "Разберусь в теме, напишу статью, составлю инструкцию, сверстаю промостраницу. Люблю и умею объяснять сложные темы простым языком. Любимые темы — здоровье, наука, всевозможный ЗОЖ, книги и путешествия. Не помогу с темами финансов и недвижимости...",
      "links": [
        "Портфолио",
        "Контакты"
      ],
      "rating": [
        {
          "value": 120,
          "list": [
            {
              "name": "Подрядчик агентства “Хохлов Сабатовский”",
              "number": 50
            },
            {
              "name": "Кинодел 2 уровня",
              "number": 10
            },
            {
              "name": "Разместил 6 работ",
              "number": 20
            },
            {
              "name": "10 конкурстных наград",
              "number": 15
            },
            {
              "name": "Курс «Работа с клиентом»",
              "number": 20
            },
            {
              "name": "Есть ссылка на портфолио",
              "number": 5,
              "nolink": true
            }
          ]
        }
      ]
    }
  ],
  "works": [
    {
      "image": "assets/temp/work/1.jpg",
      "title": "ПАША ТЕХНИК: Как вешаются в тюрьме и зашивают рты. Девушка Оксимирона, предательство Feduk, Путин"
    },
    {
      "image": "assets/temp/work/2.jpg",
      "title": "Noize MC о творческом кризисе, новых рэперах и моде на политику // А поговорить?.."
    },
    {
      "image": "assets/temp/work/3.jpg",
      "title": "20 глупых вопросов СУДМЕДЭКСПЕРТУ | Алексей Решетун"
    },
    {
      "image": "assets/temp/work/4.jpg",
      "title": "Рождение волнистого попугая"
    },
    {
      "image": "assets/temp/work/5.jpg",
      "title": "ТОП5 ЮТУБЕРОВ С ИДЕАЛЬНОЙ РЕПУТАЦИЕЙ Автор: DaiFiveTop"
    }
  ],
  "tenders": [
    {
      "date": "25.07.2018",
      "status": "На модерации",
      "statusClass": "on-review",
      "text": "Создание проморолика для domino’s pizza. Нужны итальянцы, люди в костюмах марио и луиджи, три женщины легкого поведения, ручная горилла и цирк карликов. Все происходит на останкинской башне ночью в свете прожекторов. Платим кокаином по курсу на день съемки",
      "work": [
        "Монтаж",
        "Видео “под ключ”",
        "Cъемка",
        "Цветокоррекция"
      ],
      "price": "От 40 000 до 4 000 000"
    },
    {
      "date": "25.07.2018",
      "status": "Отклонено",
      "statusClass": "declined",
      "text": "Создание проморолика для domino’s pizza. Нужны итальянцы, люди в костюмах марио и луиджи, три женщины легкого поведения, ручная горилла и цирк карликов. Все происходит на останкинской башне ночью в свете прожекторов. Платим кокаином по курсу на день съемки",
      "work": [
        "Монтаж",
        "Видео “под ключ”",
        "Cъемка",
        "Цветокоррекция"
      ],
      "price": "От 40 000 до 4 000 000"
    },
    {
      "date": "25.07.2018",
      "status": "Разослано",
      "statusClass": "sent",
      "text": "Создание проморолика для domino’s pizza. Нужны итальянцы, люди в костюмах марио и луиджи, три женщины легкого поведения, ручная горилла и цирк карликов. Все происходит на останкинской башне ночью в свете прожекторов. Платим кокаином по курсу на день съемки",
      "work": [
        "Монтаж",
        "Видео “под ключ”",
        "Cъемка",
        "Цветокоррекция"
      ],
      "price": "От 40 000 до 4 000 000"
    },
  ],
  "guide": [
    {
      "image": "assets/temp/guide/1.jpg",
      "title": "Видеопродакшен изнутри — что важно знать новичку",
      "description": "Все о чем вы всегда хотели знать, но стеснялись спросить"
    },
    {
      "image": "assets/temp/guide/2.jpg",
      "title": "База знаний о Бирже Киноделов",
      "description": "Все о чем вы всегда хотели знать, но стеснялись спросить"
    },
    {
      "image": "assets/temp/guide/3.jpg",
      "title": "Видеопродакшен изнутри — что важно знать новичку",
      "description": "Все о чем вы всегда хотели знать, но стеснялись спросить"
    },
    {
      "image": "assets/temp/guide/4.jpg",
      "title": "База знаний о Бирже Киноделов",
      "description": "Все о чем вы всегда хотели знать, но стеснялись спросить"
    },
  ]
}